#
# A fatal error has been detected by the Java Runtime Environment:
#
#  SIGSEGV (0xb) at pc=0x00007fa068ea914e, pid=5296, tid=140291088631552
#
# JRE version: Java(TM) SE Runtime Environment (7.0_45-b18) (build 1.7.0_45-b18)
# Java VM: Java HotSpot(TM) 64-Bit Server VM (24.45-b08 mixed mode linux-amd64 compressed oops)
# Problematic frame:
# J  java.util.concurrent.ConcurrentHashMap$Segment.rehash(Ljava/util/concurrent/ConcurrentHashMap$HashEntry;)V
#
# Failed to write core dump. Core dumps have been disabled. To enable core dumping, try "ulimit -c unlimited" before starting Java again
#
# If you would like to submit a bug report, please visit:
#   http://bugreport.sun.com/bugreport/crash.jsp
#

---------------  T H R E A D  ---------------

Current thread (0x00007f9858f5a800):  JavaThread "clojure-agent-send-off-pool-0" [_thread_in_Java, id=5320, stack(0x00007f981070c000,0x00007f981080d000)]

siginfo:si_signo=SIGSEGV: si_errno=0, si_code=2 (SEGV_ACCERR), si_addr=0x00007f9863b7f034

Registers:
RAX=0x00007f9868de90d8, RBX=0x0000000000400000, RCX=0x00000000007fffff, RDX=0x0000000000a4d41b
RSP=0x00007f981080b4a0, RBP=0x00007f9dbe300000, RSI=0x0000000000800000, RDI=0x0000000000102fdd
R8 =0x0000000000000005, R9 =0x00000000007fffff, R10=0x00007f9863b7f028, R11=0x00000000003b5af6
R12=0x00007f9863b7f000, R13=0x00007fa013930fd8, R14=0x00000000eb510206, R15=0x00007f9858f5a800
RIP=0x00007fa068ea914e, EFLAGS=0x0000000000010206, CSGSFS=0x0000000000000033, ERR=0x0000000000000004
  TRAPNO=0x000000000000000e

Top of Stack: (sp=0x00007f981080b4a0)
0x00007f981080b4a0:   007ffffff5fb0200 00007fa013931000
0x00007f981080b4b0:   00007f9868de9100 00007f9a11372238
0x00007f981080b4c0:   00007f9dbe300000 00007fa013900000
0x00007f981080b4d0:   00502fdbead02fdb 00007f9dbf70bf7c
0x00007f981080b4e0:   00007fa013930fd8 00400000f76ff444
0x00007f981080b4f0:   00102fdd00800000 00007fa01f379220
0x00007f981080b500:   0000000000000000 00007f9863b7f000
0x00007f981080b510:   0000000000300001 00007fa068e89b60
0x00007f981080b520:   eb510206eae765bd 00007f9fbaf31de8
0x00007f981080b530:   00400000e3121c52 00007f9fbe400030
0x00007f981080b540:   0000000000000000 00121c52e3f3b43e
0x00007f981080b550:   0000000000000000 00007f9f835591f0
0x00007f981080b560:   00007f9f839e0348 00007f9fea1fac57
0x00007f981080b570:   00007f9fb4b552b8 00007fa013930fd8
0x00007f981080b580:   0000000000000000 00007f9868d80348
0x00007f981080b590:   00007f9f48471ef8 0000000000000001
0x00007f981080b5a0:   0000000000000000 00007fa0690affe0
0x00007f981080b5b0:   00007fa013931020 e3121c5200104734
0x00007f981080b5c0:   00007fa013931048 00007f98643a29a0
0x00007f981080b5d0:   00007fa013931070 00007fa013931088
0x00007f981080b5e0:   00007fa0139391f8 00007fa013931088
0x00007f981080b5f0:   00007f9fbaf31de8 00007f9f48471e60
0x00007f981080b600:   00007fa013931070 00007fa015b41110
0x00007f981080b610:   00007f9f3e327240 00007f9fbe400030
0x00007f981080b620:   0000000000000004 00007f9fc395eab0
0x00007f981080b630:   00007f98646f5f60 00007f9800000001
0x00007f981080b640:   0000000000000000 00007f981080b670
0x00007f981080b650:   00007f981080b6c0 00007fa068e0a8e1
0x00007f981080b660:   00007fa068e0a8e1 00007f9f48471f18
0x00007f981080b670:   00007f9f48412598 00007f9f48471e38
0x00007f981080b680:   00007f981080b680 00007f98653c4e6e
0x00007f981080b690:   00007f981080b6d0 00007f98653c5368 

Instructions: (pc=0x00007fa068ea914e)
0x00007fa068ea912e:   90 e8 ec 41 f9 ff e8 07 e2 a7 04 0f 1f 80 00 00
0x00007fa068ea913e:   00 00 4f 8d 14 c4 45 8b d9 44 8b c9 89 4c 24 04
0x00007fa068ea914e:   45 23 4a 0c 45 8b 42 18 45 3b cb 4c 8b 5c 24 10
0x00007fa068ea915e:   4d 0f 45 da 4c 89 5c 24 10 4d 8b d0 49 c1 e2 03 

Register to memory mapping:

RAX=0x00007f9868de90d8 is pointing into object: 0x00007f9868de90c8
java.lang.Long 
 - klass: 'java/lang/Long'
RBX=0x0000000000400000: <offset 0> in /usr/lib/jvm/java-7-oracle/bin/java at 0x0000000000400000
RCX=0x00000000007fffff is an unknown value
RDX=0x0000000000a4d41b is an unknown value
RSP=0x00007f981080b4a0 is pointing into the stack for thread: 0x00007f9858f5a800
RBP=0x00007f9dbe300000 is an oop
[Ljava.util.concurrent.ConcurrentHashMap$HashEntry; 
 - klass: 'java/util/concurrent/ConcurrentHashMap$HashEntry'[]
 - length: 8388608
RSI=0x0000000000800000 is an unknown value
RDI=0x0000000000102fdd is an unknown value
R8 =0x0000000000000005 is an unknown value
R9 =0x00000000007fffff is an unknown value
R10=0x00007f9863b7f028 is an unknown value
R11=0x00000000003b5af6 is an unknown value
R12=0x00007f9863b7f000 is an unknown value
R13=0x00007fa013930fd8 is an oop
java.util.concurrent.ConcurrentHashMap$Segment 
 - klass: 'java/util/concurrent/ConcurrentHashMap$Segment'
R14=0x00000000eb510206 is an unknown value
R15=0x00007f9858f5a800 is a thread


Stack: [0x00007f981070c000,0x00007f981080d000],  sp=0x00007f981080b4a0,  free space=1021k
Native frames: (J=compiled Java code, j=interpreted, Vv=VM code, C=native code)
J  java.util.concurrent.ConcurrentHashMap$Segment.rehash(Ljava/util/concurrent/ConcurrentHashMap$HashEntry;)V


---------------  P R O C E S S  ---------------

Java Threads: ( => current thread )
  0x00007f98591bb000 JavaThread "clojure-agent-send-off-pool-3" [_thread_blocked, id=5323, stack(0x00007f9810409000,0x00007f981050a000)]
  0x00007f9858b1c000 JavaThread "clojure-agent-send-off-pool-2" [_thread_blocked, id=5322, stack(0x00007f981050a000,0x00007f981060b000)]
  0x00007f9858b19800 JavaThread "clojure-agent-send-off-pool-1" [_thread_blocked, id=5321, stack(0x00007f981060b000,0x00007f981070c000)]
=>0x00007f9858f5a800 JavaThread "clojure-agent-send-off-pool-0" [_thread_in_Java, id=5320, stack(0x00007f981070c000,0x00007f981080d000)]
  0x00007f9858072000 JavaThread "Service Thread" daemon [_thread_blocked, id=5318, stack(0x00007f9811238000,0x00007f9811339000)]
  0x00007f985806f800 JavaThread "C2 CompilerThread1" daemon [_thread_blocked, id=5317, stack(0x00007f9811339000,0x00007f981143a000)]
  0x00007f985806c800 JavaThread "C2 CompilerThread0" daemon [_thread_blocked, id=5316, stack(0x00007f981143a000,0x00007f981153b000)]
  0x00007f9858062000 JavaThread "Signal Dispatcher" daemon [_thread_blocked, id=5315, stack(0x00007f981153b000,0x00007f981163c000)]
  0x00007f985804b800 JavaThread "Finalizer" daemon [_thread_blocked, id=5314, stack(0x00007f98117b3000,0x00007f98118b4000)]
  0x00007f9858047000 JavaThread "Reference Handler" daemon [_thread_blocked, id=5313, stack(0x00007f98118b4000,0x00007f98119b5000)]
  0x0000000000e32800 JavaThread "main" [_thread_blocked, id=5299, stack(0x00007fa06ea3d000,0x00007fa06eb3e000)]

Other Threads:
  0x00007f9858045000 VMThread [stack: 0x00007f98119b5000,0x00007f9811ab6000] [id=5312]
  0x00007f985807d000 WatcherThread [stack: 0x00007f9811137000,0x00007f9811238000] [id=5319]

VM state:not at safepoint (normal execution)

VM Mutex/Monitor currently owned by a thread: None

Heap
 PSYoungGen      total 5126144K, used 1443225K [0x00007f9dbe300000, 0x00007fa068e00000, 0x00007fa068e00000)
  eden space 3728384K, 1% used [0x00007f9dbe300000,0x00007f9dc0f6d150,0x00007f9ea1c00000)
  from space 1397760K, 99% used [0x00007fa013900000,0x00007fa068df92c0,0x00007fa068e00000)
  to   space 3728384K, 0% used [0x00007f9ea1c00000,0x00007f9ea1c00000,0x00007f9f85500000)
 ParOldGen       total 22369792K, used 7589520K [0x00007f9868d80000, 0x00007f9dbe300000, 0x00007f9dbe300000)
  object space 22369792K, 33% used [0x00007f9868d80000,0x00007f9a38124000,0x00007f9dbe300000)
 PSPermGen       total 25088K, used 25015K [0x00007f9863b80000, 0x00007f9865400000, 0x00007f9868d80000)
  object space 25088K, 99% used [0x00007f9863b80000,0x00007f98653edcb0,0x00007f9865400000)

Card table byte_map: [0x00007f985fad6000,0x00007f9863b00000] byte_map_base: 0x00007f58937b8400

Polling page: 0x00007fa06eb5c000

Code Cache  [0x00007fa068e04000, 0x00007fa0690e4000, 0x00007fa06be04000)
 total_blobs=1111 nmethods=797 adapters=267 free_code_cache=46472Kb largest_free_block=47377408

Compilation events (10 events):
Event: 137.200 Thread 0x00007f985806f800 nmethod 938 0x00007fa068f83b10 code [0x00007fa068f83ca0, 0x00007fa068f84198]
Event: 137.200 Thread 0x00007f985806f800  940             datomic.datalog$hashyf$fn__7798::invoke (97 bytes)
Event: 137.203 Thread 0x00007f985806f800 nmethod 940 0x00007fa069081290 code [0x00007fa069081420, 0x00007fa069081828]
Event: 137.234 Thread 0x00007f985806c800 nmethod 939% 0x00007fa069069b10 code [0x00007fa069069f20, 0x00007fa06906c5a0]
Event: 174.959 Thread 0x00007f985806f800  941             clojure.core$chunk_append::invoke (14 bytes)
Event: 174.974 Thread 0x00007f985806f800 nmethod 941 0x00007fa068e80ad0 code [0x00007fa068e80c20, 0x00007fa068e80d58]
Event: 179.264 Thread 0x00007f985806c800  942             clojure.core$range$fn__4269::invoke (230 bytes)
Event: 179.312 Thread 0x00007f985806c800 nmethod 942 0x00007fa068ecd910 code [0x00007fa068ecdca0, 0x00007fa068ecf1e8]
Event: 184.319 Thread 0x00007f985806f800  943             datomic.datalog$join_project_coll_with::invoke (971 bytes)
Event: 184.416 Thread 0x00007f985806f800 nmethod 943 0x00007fa0690cac10 code [0x00007fa0690cb360, 0x00007fa0690cf638]

GC Heap History (10 events):
Event: 28.498 GC heap before
{Heap before GC invocations=2 (full 0):
 PSYoungGen      total 9787392K, used 8556600K [0x00007f9dbe300000, 0x00007fa068e00000, 0x00007fa068e00000)
  eden space 8389632K, 100% used [0x00007f9dbe300000,0x00007f9fbe400000,0x00007f9fbe400000)
  from space 1397760K, 11% used [0x00007f9fbe400000,0x00007f9fc870e2a0,0x00007fa013900000)
  to   space 1397760K, 0% used [0x00007fa013900000,0x00007fa013900000,0x00007fa068e00000)
 ParOldGen       total 22369792K, used 8K [0x00007f9868d80000, 0x00007f9dbe300000, 0x00007f9dbe300000)
  object space 22369792K, 0% used [0x00007f9868d80000,0x00007f9868d82000,0x00007f9dbe300000)
 PSPermGen       total 25088K, used 24975K [0x00007f9863b80000, 0x00007f9865400000, 0x00007f9868d80000)
  object space 25088K, 99% used [0x00007f9863b80000,0x00007f98653e3c08,0x00007f9865400000)
Event: 28.572 GC heap after
Heap after GC invocations=2 (full 0):
 PSYoungGen      total 9787392K, used 188543K [0x00007f9dbe300000, 0x00007fa068e00000, 0x00007fa068e00000)
  eden space 8389632K, 0% used [0x00007f9dbe300000,0x00007f9dbe300000,0x00007f9fbe400000)
  from space 1397760K, 13% used [0x00007fa013900000,0x00007fa01f11fe40,0x00007fa068e00000)
  to   space 1397760K, 0% used [0x00007f9fbe400000,0x00007f9fbe400000,0x00007fa013900000)
 ParOldGen       total 22369792K, used 16K [0x00007f9868d80000, 0x00007f9dbe300000, 0x00007f9dbe300000)
  object space 22369792K, 0% used [0x00007f9868d80000,0x00007f9868d84000,0x00007f9dbe300000)
 PSPermGen       total 25088K, used 24975K [0x00007f9863b80000, 0x00007f9865400000, 0x00007f9868d80000)
  object space 25088K, 99% used [0x00007f9863b80000,0x00007f98653e3c08,0x00007f9865400000)
}
Event: 59.986 GC heap before
{Heap before GC invocations=3 (full 0):
 PSYoungGen      total 9787392K, used 8578175K [0x00007f9dbe300000, 0x00007fa068e00000, 0x00007fa068e00000)
  eden space 8389632K, 100% used [0x00007f9dbe300000,0x00007f9fbe400000,0x00007f9fbe400000)
  from space 1397760K, 13% used [0x00007fa013900000,0x00007fa01f11fe40,0x00007fa068e00000)
  to   space 1397760K, 0% used [0x00007f9fbe400000,0x00007f9fbe400000,0x00007fa013900000)
 ParOldGen       total 22369792K, used 16K [0x00007f9868d80000, 0x00007f9dbe300000, 0x00007f9dbe300000)
  object space 22369792K, 0% used [0x00007f9868d80000,0x00007f9868d84000,0x00007f9dbe300000)
 PSPermGen       total 25088K, used 24975K [0x00007f9863b80000, 0x00007f9865400000, 0x00007f9868d80000)
  object space 25088K, 99% used [0x00007f9863b80000,0x00007f98653e3c48,0x00007f9865400000)
Event: 63.153 GC heap after
Heap after GC invocations=3 (full 0):
 PSYoungGen      total 9787392K, used 1397748K [0x00007f9dbe300000, 0x00007fa068e00000, 0x00007fa068e00000)
  eden space 8389632K, 0% used [0x00007f9dbe300000,0x00007f9dbe300000,0x00007f9fbe400000)
  from space 1397760K, 99% used [0x00007f9fbe400000,0x00007fa0138fd270,0x00007fa013900000)
  to   space 1397760K, 0% used [0x00007fa013900000,0x00007fa013900000,0x00007fa068e00000)
 ParOldGen       total 22369792K, used 4764048K [0x00007f9868d80000, 0x00007f9dbe300000, 0x00007f9dbe300000)
  object space 22369792K, 21% used [0x00007f9868d80000,0x00007f998b9e4000,0x00007f9dbe300000)
 PSPermGen       total 25088K, used 24975K [0x00007f9863b80000, 0x00007f9865400000, 0x00007f9868d80000)
  object space 25088K, 99% used [0x00007f9863b80000,0x00007f98653e3c48,0x00007f9865400000)
}
Event: 88.733 GC heap before
{Heap before GC invocations=4 (full 0):
 PSYoungGen      total 9787392K, used 9787380K [0x00007f9dbe300000, 0x00007fa068e00000, 0x00007fa068e00000)
  eden space 8389632K, 100% used [0x00007f9dbe300000,0x00007f9fbe400000,0x00007f9fbe400000)
  from space 1397760K, 99% used [0x00007f9fbe400000,0x00007fa0138fd270,0x00007fa013900000)
  to   space 1397760K, 0% used [0x00007fa013900000,0x00007fa013900000,0x00007fa068e00000)
 ParOldGen       total 22369792K, used 4764048K [0x00007f9868d80000, 0x00007f9dbe300000, 0x00007f9dbe300000)
  object space 22369792K, 21% used [0x00007f9868d80000,0x00007f998b9e4000,0x00007f9dbe300000)
 PSPermGen       total 25088K, used 25010K [0x00007f9863b80000, 0x00007f9865400000, 0x00007f9868d80000)
  object space 25088K, 99% used [0x00007f9863b80000,0x00007f98653ec8d0,0x00007f9865400000)
Event: 89.458 GC heap after
Heap after GC invocations=4 (full 0):
 PSYoungGen      total 9787392K, used 378708K [0x00007f9dbe300000, 0x00007fa068e00000, 0x00007fa068e00000)
  eden space 8389632K, 0% used [0x00007f9dbe300000,0x00007f9dbe300000,0x00007f9fbe400000)
  from space 1397760K, 27% used [0x00007fa013900000,0x00007fa02aad5250,0x00007fa068e00000)
  to   space 1397760K, 0% used [0x00007f9fbe400000,0x00007f9fbe400000,0x00007fa013900000)
 ParOldGen       total 22369792K, used 4764048K [0x00007f9868d80000, 0x00007f9dbe300000, 0x00007f9dbe300000)
  object space 22369792K, 21% used [0x00007f9868d80000,0x00007f998b9e4000,0x00007f9dbe300000)
 PSPermGen       total 25088K, used 25010K [0x00007f9863b80000, 0x00007f9865400000, 0x00007f9868d80000)
  object space 25088K, 99% used [0x00007f9863b80000,0x00007f98653ec8d0,0x00007f9865400000)
}
Event: 116.323 GC heap before
{Heap before GC invocations=5 (full 0):
 PSYoungGen      total 9787392K, used 8768340K [0x00007f9dbe300000, 0x00007fa068e00000, 0x00007fa068e00000)
  eden space 8389632K, 100% used [0x00007f9dbe300000,0x00007f9fbe400000,0x00007f9fbe400000)
  from space 1397760K, 27% used [0x00007fa013900000,0x00007fa02aad5250,0x00007fa068e00000)
  to   space 1397760K, 0% used [0x00007f9fbe400000,0x00007f9fbe400000,0x00007fa013900000)
 ParOldGen       total 22369792K, used 4764048K [0x00007f9868d80000, 0x00007f9dbe300000, 0x00007f9dbe300000)
  object space 22369792K, 21% used [0x00007f9868d80000,0x00007f998b9e4000,0x00007f9dbe300000)
 PSPermGen       total 25088K, used 25013K [0x00007f9863b80000, 0x00007f9865400000, 0x00007f9868d80000)
  object space 25088K, 99% used [0x00007f9863b80000,0x00007f98653ed5d0,0x00007f9865400000)
Event: 124.805 GC heap after
Heap after GC invocations=5 (full 0):
 PSYoungGen      total 9787392K, used 1397732K [0x00007f9dbe300000, 0x00007fa068e00000, 0x00007fa068e00000)
  eden space 8389632K, 0% used [0x00007f9dbe300000,0x00007f9dbe300000,0x00007f9fbe400000)
  from space 1397760K, 99% used [0x00007f9fbe400000,0x00007fa0138f92c0,0x00007fa013900000)
  to   space 1397760K, 0% used [0x00007fa013900000,0x00007fa013900000,0x00007fa068e00000)
 ParOldGen       total 22369792K, used 6952856K [0x00007f9868d80000, 0x00007f9dbe300000, 0x00007f9dbe300000)
  object space 22369792K, 31% used [0x00007f9868d80000,0x00007f9a11366000,0x00007f9dbe300000)
 PSPermGen       total 25088K, used 25013K [0x00007f9863b80000, 0x00007f9865400000, 0x00007f9868d80000)
  object space 25088K, 99% used [0x00007f9863b80000,0x00007f98653ed5d0,0x00007f9865400000)
}
Event: 196.559 GC heap before
{Heap before GC invocations=6 (full 0):
 PSYoungGen      total 9787392K, used 9767006K [0x00007f9dbe300000, 0x00007fa068e00000, 0x00007fa068e00000)
  eden space 8389632K, 99% used [0x00007f9dbe300000,0x00007f9fbd01e730,0x00007f9fbe400000)
  from space 1397760K, 99% used [0x00007f9fbe400000,0x00007fa0138f92c0,0x00007fa013900000)
  to   space 1397760K, 0% used [0x00007fa013900000,0x00007fa013900000,0x00007fa068e00000)
 ParOldGen       total 22369792K, used 6952856K [0x00007f9868d80000, 0x00007f9dbe300000, 0x00007f9dbe300000)
  object space 22369792K, 31% used [0x00007f9868d80000,0x00007f9a11366000,0x00007f9dbe300000)
 PSPermGen       total 25088K, used 25015K [0x00007f9863b80000, 0x00007f9865400000, 0x00007f9868d80000)
  object space 25088K, 99% used [0x00007f9863b80000,0x00007f98653edcb0,0x00007f9865400000)
Event: 220.792 GC heap after
Heap after GC invocations=6 (full 0):
 PSYoungGen      total 5126144K, used 1397732K [0x00007f9dbe300000, 0x00007fa068e00000, 0x00007fa068e00000)
  eden space 3728384K, 0% used [0x00007f9dbe300000,0x00007f9dbe300000,0x00007f9ea1c00000)
  from space 1397760K, 99% used [0x00007fa013900000,0x00007fa068df92c0,0x00007fa068e00000)
  to   space 3728384K, 0% used [0x00007f9ea1c00000,0x00007f9ea1c00000,0x00007f9f85500000)
 ParOldGen       total 22369792K, used 7589520K [0x00007f9868d80000, 0x00007f9dbe300000, 0x00007f9dbe300000)
  object space 22369792K, 33% used [0x00007f9868d80000,0x00007f9a38124000,0x00007f9dbe300000)
 PSPermGen       total 25088K, used 25015K [0x00007f9863b80000, 0x00007f9865400000, 0x00007f9868d80000)
  object space 25088K, 99% used [0x00007f9863b80000,0x00007f98653edcb0,0x00007f9865400000)
}

Deoptimization events (10 events):
Event: 80.688 Thread 0x00007f9858b19800 Uncommon trap: reason=bimorphic action=maybe_recompile pc=0x00007fa06909d4e4 method=datomic.iter$take_while$reify__2914.next()Ljava/lang/Object; @ 42
Event: 82.609 Thread 0x00007f9858b19800 Uncommon trap: reason=unreached action=reinterpret pc=0x00007fa068fc53dc method=java.util.concurrent.locks.AbstractQueuedSynchronizer.addWaiter(Ljava/util/concurrent/locks/AbstractQueuedSynchronizer$Node;)Ljava/util/concurrent/locks/AbstractQueuedSynchron
Event: 82.609 Thread 0x00007f98591bb000 Uncommon trap: reason=unreached action=reinterpret pc=0x00007fa068fc53dc method=java.util.concurrent.locks.AbstractQueuedSynchronizer.addWaiter(Ljava/util/concurrent/locks/AbstractQueuedSynchronizer$Node;)Ljava/util/concurrent/locks/AbstractQueuedSynchron
Event: 100.264 Thread 0x0000000000e32800 Uncommon trap: reason=bimorphic action=maybe_recompile pc=0x00007fa06905e7b8 method=clojure.lang.IteratorSeq.first()Ljava/lang/Object; @ 43
Event: 100.264 Thread 0x0000000000e32800 Uncommon trap: reason=bimorphic action=maybe_recompile pc=0x00007fa06905e7b8 method=clojure.lang.IteratorSeq.first()Ljava/lang/Object; @ 43
Event: 100.264 Thread 0x0000000000e32800 Uncommon trap: reason=bimorphic action=maybe_recompile pc=0x00007fa06905e7b8 method=clojure.lang.IteratorSeq.first()Ljava/lang/Object; @ 43
Event: 100.264 Thread 0x0000000000e32800 Uncommon trap: reason=bimorphic action=maybe_recompile pc=0x00007fa06905e7b8 method=clojure.lang.IteratorSeq.first()Ljava/lang/Object; @ 43
Event: 100.297 Thread 0x0000000000e32800 Uncommon trap: reason=class_check action=maybe_recompile pc=0x00007fa0690715e4 method=clojure.lang.RT.countFrom(Ljava/lang/Object;)I @ 75
Event: 100.315 Thread 0x0000000000e32800 Uncommon trap: reason=unreached action=reinterpret pc=0x00007fa06907d620 method=datomic.datalog$hashyf$fn__7798.invoke(Ljava/lang/Object;)Ljava/lang/Object; @ 39
Event: 137.179 Thread 0x0000000000e32800 Uncommon trap: reason=null_check action=make_not_entrant pc=0x00007fa0690c5874 method=clojure.core$set.invoke(Ljava/lang/Object;)Ljava/lang/Object; @ 17

Internal exceptions (10 events):
Event: 75.467 Thread 0x0000000000e32800 Implicit null exception at 0x00007fa06907a3d0 to 0x00007fa06907a9b5
Event: 75.467 Thread 0x0000000000e32800 Threw 0x00007f9e91902200 at /HUDSON/workspace/7u-2-build-linux-amd64/jdk7u45/229/hotspot/src/share/vm/prims/jvm.cpp:1244
Event: 75.470 Thread 0x0000000000e32800 Threw 0x00007f9e91905c80 at /HUDSON/workspace/7u-2-build-linux-amd64/jdk7u45/229/hotspot/src/share/vm/prims/jvm.cpp:1244
Event: 75.471 Thread 0x0000000000e32800 Threw 0x00007f9e91908c28 at /HUDSON/workspace/7u-2-build-linux-amd64/jdk7u45/229/hotspot/src/share/vm/prims/jvm.cpp:1244
Event: 75.471 Thread 0x0000000000e32800 Threw 0x00007f9e9190bba0 at /HUDSON/workspace/7u-2-build-linux-amd64/jdk7u45/229/hotspot/src/share/vm/prims/jvm.cpp:1244
Event: 75.471 Thread 0x0000000000e32800 Threw 0x00007f9e9190ec58 at /HUDSON/workspace/7u-2-build-linux-amd64/jdk7u45/229/hotspot/src/share/vm/prims/jvm.cpp:1244
Event: 78.814 Thread 0x0000000000e32800 Implicit null exception at 0x00007fa06902510d to 0x00007fa0690257c9
Event: 100.315 Thread 0x0000000000e32800 Implicit null exception at 0x00007fa06907d2d2 to 0x00007fa06907d5e9
Event: 137.176 Thread 0x0000000000e32800 Implicit null exception at 0x00007fa0690c2d9f to 0x00007fa0690c5835
Event: 221.079 Thread 0x00007f9858f5a800 Implicit null exception at 0x00007fa068ea914e to 0x0000000000000000

Events (10 events):
Event: 137.194 Thread 0x00007f985806f800 flushing nmethod 0x00007fa06904e690
Event: 137.194 Thread 0x00007f985806f800 flushing nmethod 0x00007fa06904ecd0
Event: 137.194 Thread 0x00007f985806f800 flushing nmethod 0x00007fa06904f390
Event: 137.194 Thread 0x00007f985806f800 flushing nmethod 0x00007fa06904f890
Event: 137.194 Thread 0x00007f985806f800 flushing nmethod 0x00007fa069050b10
Event: 137.194 Thread 0x00007f985806f800 flushing nmethod 0x00007fa06905a6d0
Event: 137.196 Thread 0x00007f985806f800 flushing nmethod 0x00007fa069068b10
Event: 137.196 Thread 0x00007f985806f800 flushing nmethod 0x00007fa06906b410
Event: 196.556 Executing VM operation: ParallelGCFailedAllocation
Event: 220.801 Executing VM operation: ParallelGCFailedAllocation done


Dynamic libraries:
00400000-00401000 r-xp 00000000 08:04 278121                             /usr/lib/jvm/java-7-oracle/bin/java
00600000-00601000 rw-p 00000000 08:04 278121                             /usr/lib/jvm/java-7-oracle/bin/java
00e24000-016cf000 rw-p 00000000 00:00 0                                  [heap]
7f9810409000-7f981040c000 ---p 00000000 00:00 0 
7f981040c000-7f981050a000 rw-p 00000000 00:00 0 
7f981050a000-7f981050d000 ---p 00000000 00:00 0 
7f981050d000-7f981060b000 rw-p 00000000 00:00 0 
7f981060b000-7f981060e000 ---p 00000000 00:00 0 
7f981060e000-7f981070c000 rw-p 00000000 00:00 0 
7f981070c000-7f981070f000 ---p 00000000 00:00 0 
7f981070f000-7f981080d000 rw-p 00000000 00:00 0 
7f981080d000-7f9810815000 r-xp 00000000 08:04 262716                     /usr/lib/jvm/java-7-oracle/jre/lib/amd64/libmanagement.so
7f9810815000-7f9810a14000 ---p 00008000 08:04 262716                     /usr/lib/jvm/java-7-oracle/jre/lib/amd64/libmanagement.so
7f9810a14000-7f9810a15000 rw-p 00007000 08:04 262716                     /usr/lib/jvm/java-7-oracle/jre/lib/amd64/libmanagement.so
7f9810a15000-7f9810a2b000 r-xp 00000000 08:04 262730                     /usr/lib/jvm/java-7-oracle/jre/lib/amd64/libnet.so
7f9810a2b000-7f9810c2b000 ---p 00016000 08:04 262730                     /usr/lib/jvm/java-7-oracle/jre/lib/amd64/libnet.so
7f9810c2b000-7f9810c2c000 rw-p 00016000 08:04 262730                     /usr/lib/jvm/java-7-oracle/jre/lib/amd64/libnet.so
7f9810c2c000-7f9810c3c000 r-xp 00000000 08:04 262712                     /usr/lib/jvm/java-7-oracle/jre/lib/amd64/libnio.so
7f9810c3c000-7f9810e3c000 ---p 00010000 08:04 262712                     /usr/lib/jvm/java-7-oracle/jre/lib/amd64/libnio.so
7f9810e3c000-7f9810e3d000 rw-p 00010000 08:04 262712                     /usr/lib/jvm/java-7-oracle/jre/lib/amd64/libnio.so
7f9810e3d000-7f9810e3e000 r--s 00001000 08:04 2097520                    /home/anantoni/datomic-free-0.8.4218/lib/tools.trace-0.7.3.jar
7f9810e3e000-7f9810e3f000 r--s 00000000 08:04 2097519                    /home/anantoni/datomic-free-0.8.4218/lib/tools.namespace-0.1.0.jar
7f9810e3f000-7f9810e40000 r--s 00001000 08:04 2097518                    /home/anantoni/datomic-free-0.8.4218/lib/tools.logging-0.2.3.jar
7f9810e40000-7f9810e41000 r--s 00000000 08:04 2097517                    /home/anantoni/datomic-free-0.8.4218/lib/tools.cli-0.2.2.jar
7f9810e41000-7f9810e43000 r--s 00008000 08:04 2097516                    /home/anantoni/datomic-free-0.8.4218/lib/tomcat-juli-7.0.27.jar
7f9810e43000-7f9810e45000 r--s 0001c000 08:04 2097515                    /home/anantoni/datomic-free-0.8.4218/lib/tomcat-jdbc-7.0.27.jar
7f9810e45000-7f9810e46000 r--s 00015000 08:04 2097514                    /home/anantoni/datomic-free-0.8.4218/lib/tagsoup-1.2.jar
7f9810e46000-7f9810e48000 r--s 00005000 08:04 2097513                    /home/anantoni/datomic-free-0.8.4218/lib/slf4j-api-1.7.5.jar
7f9810e48000-7f9810e49000 r--s 00000000 08:04 2097512                    /home/anantoni/datomic-free-0.8.4218/lib/ring-servlet-1.1.1.jar
7f9810e49000-7f9810e4a000 r--s 00000000 08:04 2097511                    /home/anantoni/datomic-free-0.8.4218/lib/ring-jetty-adapter-1.1.1.jar
7f9810e4a000-7f9810e4b000 r--s 00001000 08:04 2097510                    /home/anantoni/datomic-free-0.8.4218/lib/ring-devel-1.1.1.jar
7f9810e4b000-7f9810e4d000 r--s 00004000 08:04 2097509                    /home/anantoni/datomic-free-0.8.4218/lib/ring-core-1.1.1.jar
7f9810e4d000-7f9810e4e000 r--s 00000000 08:04 2097508                    /home/anantoni/datomic-free-0.8.4218/lib/ring-1.1.1.jar
7f9810e4e000-7f9810e5a000 r--s 00100000 08:04 2097507                    /home/anantoni/datomic-free-0.8.4218/lib/rhino-1.7R3.jar
7f9810e5a000-7f9810e60000 r--s 00068000 08:04 2097506                    /home/anantoni/datomic-free-0.8.4218/lib/protobuf-java-2.4.1.jar
7f9810e60000-7f9810e61000 r--s 00000000 08:04 2097505                    /home/anantoni/datomic-free-0.8.4218/lib/ns-tracker-0.1.1.jar
7f9810e61000-7f9810e79000 r--s 0010f000 08:04 2097503                    /home/anantoni/datomic-free-0.8.4218/lib/netty-3.6.6.Final.jar
7f9810e79000-7f9810e7a000 r--s 00001000 08:04 2097502                    /home/anantoni/datomic-free-0.8.4218/lib/moustache-1.1.0.jar
7f9810e7a000-7f9810e91000 r--s 0012c000 08:04 2097501                    /home/anantoni/datomic-free-0.8.4218/lib/lucene-core-3.3.0.jar
7f9810e91000-7f9810e9b000 r--s 0005d000 08:04 2097500                    /home/anantoni/datomic-free-0.8.4218/lib/logback-core-1.0.13.jar
7f9810e9b000-7f9810ea1000 r--s 0003b000 08:04 2097499                    /home/anantoni/datomic-free-0.8.4218/lib/logback-classic-1.0.13.jar
7f9810ea1000-7f9810ea3000 r--s 00004000 08:04 2097498                    /home/anantoni/datomic-free-0.8.4218/lib/log4j-over-slf4j-1.7.5.jar
7f9810ea3000-7f9810ea4000 r--s 00004000 08:04 2097491                    /home/anantoni/datomic-free-0.8.4218/lib/liberator-0.5.0.jar
7f9810ea4000-7f9810eaa000 r--s 00034000 08:04 2097469                    /home/anantoni/datomic-free-0.8.4218/lib/junit-4.8.2.jar
7f9810eaa000-7f9810eab000 r--s 00001000 08:04 2097467                    /home/anantoni/datomic-free-0.8.4218/lib/jul-to-slf4j-1.7.5.jar
7f9810eab000-7f9810eae000 r--s 00006000 08:04 2097466                    /home/anantoni/datomic-free-0.8.4218/lib/jsr305-1.3.9.jar
7f9810eae000-7f9810eb0000 r--s 0000a000 08:04 2097465                    /home/anantoni/datomic-free-0.8.4218/lib/json-20090211.jar
7f9810eb0000-7f9810ebf000 r--s 0007c000 08:04 2097464                    /home/anantoni/datomic-free-0.8.4218/lib/joda-time-2.0.jar
7f9810ebf000-7f9810ec1000 r--s 00015000 08:04 2097439                    /home/anantoni/datomic-free-0.8.4218/lib/jline-win-1.0.jar
7f9810ec1000-7f9810ec2000 r--s 0000d000 08:04 2097428                    /home/anantoni/datomic-free-0.8.4218/lib/jline-0.9.9.jar
7f9810ec2000-7f9810ec7000 r--s 00041000 08:04 2097427                    /home/anantoni/datomic-free-0.8.4218/lib/jetty-util-8.1.11.v20130520.jar
7f9810ec7000-7f9810ec9000 r--s 00017000 08:04 2097426                    /home/anantoni/datomic-free-0.8.4218/lib/jetty-servlet-8.1.11.v20130520.jar
7f9810ec9000-7f9810ecf000 r--s 00051000 08:04 2097425                    /home/anantoni/datomic-free-0.8.4218/lib/jetty-server-8.1.11.v20130520.jar
7f9810ecf000-7f9810ed1000 r--s 00014000 08:04 2097407                    /home/anantoni/datomic-free-0.8.4218/lib/jetty-security-8.1.11.v20130520.jar
7f9810ed1000-7f9810ed4000 r--s 00017000 08:04 2097406                    /home/anantoni/datomic-free-0.8.4218/lib/jetty-io-8.1.11.v20130520.jar
7f9810ed4000-7f9810ed6000 r--s 00016000 08:04 2097405                    /home/anantoni/datomic-free-0.8.4218/lib/jetty-http-8.1.11.v20130520.jar
7f9810ed6000-7f9810ed8000 r--s 00004000 08:04 2097404                    /home/anantoni/datomic-free-0.8.4218/lib/jetty-continuation-8.1.11.v20130520.jar
7f9810ed8000-7f9810eda000 r--s 00003000 08:04 2097403                    /home/anantoni/datomic-free-0.8.4218/lib/jcl-over-slf4j-1.7.5.jar
7f9810eda000-7f9810edd000 r--s 0002e000 08:04 2097402                    /home/anantoni/datomic-free-0.8.4218/lib/javax.servlet-3.0.0.v201112011016.jar
7f9810edd000-7f9810ede000 r--s 00000000 08:04 2097401                    /home/anantoni/datomic-free-0.8.4218/lib/java.classpath-0.1.0.jar
7f9810ede000-7f9810ee1000 r--s 00019000 08:04 2097400                    /home/anantoni/datomic-free-0.8.4218/lib/jarjar-1.1.jar
7f9810ee1000-7f9810eee000 r--s 00097000 08:04 2097399                    /home/anantoni/datomic-free-0.8.4218/lib/jackson-mapper-asl-1.8.9.jar
7f9810eee000-7f9810ef2000 r--s 00034000 08:04 2097398                    /home/anantoni/datomic-free-0.8.4218/lib/jackson-core-asl-1.8.9.jar
7f9810ef2000-7f9810f0c000 r--s 00158000 08:04 2097397                    /home/anantoni/datomic-free-0.8.4218/lib/hornetq-core-2.2.21.Final.jar
7f9810f0c000-7f9810f0d000 r--s 00002000 08:04 2097396                    /home/anantoni/datomic-free-0.8.4218/lib/hiccup-1.0.1.jar
7f9810f0d000-7f9810f19000 r--s 0016b000 08:04 2097395                    /home/anantoni/datomic-free-0.8.4218/lib/h2-1.3.171.jar
7f9810f19000-7f9810f42000 r--s 001ee000 08:04 2097394                    /home/anantoni/datomic-free-0.8.4218/lib/guava-14.0.1.jar
7f9810f42000-7f9810f61000 r--s 003bf000 08:04 2097393                    /home/anantoni/datomic-free-0.8.4218/lib/google-closure-library-0.0-1376.jar
7f9810f61000-7f9810f63000 r--s 0000f000 08:04 2097392                    /home/anantoni/datomic-free-0.8.4218/lib/fressian-0.6.3.jar
7f9810f63000-7f9810f64000 r--s 00004000 08:04 2097391                    /home/anantoni/datomic-free-0.8.4218/lib/enlive-1.0.1.jar
7f9810f64000-7f9810f65000 r--s 00001000 08:04 2097390                    /home/anantoni/datomic-free-0.8.4218/lib/data.json-0.1.2.jar
7f9810f65000-7f9810f66000 r--s 00000000 08:04 2097389                    /home/anantoni/datomic-free-0.8.4218/lib/data.csv-0.1.2.jar
7f9810f66000-7f9810f69000 r--s 00025000 08:04 2097388                    /home/anantoni/datomic-free-0.8.4218/lib/commons-io-2.1.jar
7f9810f69000-7f9810f6c000 r--s 0000c000 08:04 2097387                    /home/anantoni/datomic-free-0.8.4218/lib/commons-fileupload-1.2.1.jar
7f9810f6c000-7f9810f6e000 r--s 00009000 08:04 2097386                    /home/anantoni/datomic-free-0.8.4218/lib/commons-compiler-jdk-2.6.1.jar
7f9810f6e000-7f9810f70000 r--s 00006000 08:04 2097385                    /home/anantoni/datomic-free-0.8.4218/lib/commons-compiler-2.6.1.jar
7f9810f70000-7f9810f72000 r--s 0000a000 08:04 2097384                    /home/anantoni/datomic-free-0.8.4218/lib/commons-codec-1.3.jar
7f9810f72000-7f9810fa3000 r--s 00304000 08:04 2097383                    /home/anantoni/datomic-free-0.8.4218/lib/closure-compiler-r1918.jar
7f9810fa3000-7f9810fa4000 r--s 0001b000 08:04 2097382                    /home/anantoni/datomic-free-0.8.4218/lib/clojurescript-0.0-1236.jar
7f9810fa4000-7f9810fe3000 r--s 0032d000 08:04 2097381                    /home/anantoni/datomic-free-0.8.4218/lib/clojure-1.5.1.jar
7f9810fe3000-7f9810fe4000 r--s 00001000 08:04 2097380                    /home/anantoni/datomic-free-0.8.4218/lib/clj-time-0.3.7.jar
7f9810fe4000-7f9810fe5000 r--s 00001000 08:04 2097379                    /home/anantoni/datomic-free-0.8.4218/lib/clj-stacktrace-0.2.4.jar
7f9810fe5000-7f9810fea000 r--s 00058000 08:04 2097378                    /home/anantoni/datomic-free-0.8.4218/lib/bsh-2.1b5.jar
7f9810fea000-7f98110d3000 r--s 0090a000 08:04 2097377                    /home/anantoni/datomic-free-0.8.4218/lib/aws-java-sdk-1.5.5.jar
7f98110d3000-7f98110d5000 r--s 0000a000 08:04 2097376                    /home/anantoni/datomic-free-0.8.4218/lib/args4j-2.0.12.jar
7f98110d5000-7f98110d7000 r--s 00002000 08:04 2097358                    /home/anantoni/datomic-free-0.8.4218/lib/ant-launcher-1.8.2.jar
7f98110d7000-7f98110f5000 r--s 001bb000 08:04 2097357                    /home/anantoni/datomic-free-0.8.4218/lib/ant-1.8.2.jar
7f98110f5000-7f9811137000 r--s 0036c000 08:04 2097355                    /home/anantoni/datomic-free-0.8.4218/datomic-free-transactor-0.8.4218.jar
7f9811137000-7f9811138000 ---p 00000000 00:00 0 
7f9811138000-7f9811238000 rw-p 00000000 00:00 0 
7f9811238000-7f981123b000 ---p 00000000 00:00 0 
7f981123b000-7f9811339000 rw-p 00000000 00:00 0 
7f9811339000-7f981133c000 ---p 00000000 00:00 0 
7f981133c000-7f981143a000 rw-p 00000000 00:00 0 
7f981143a000-7f981143d000 ---p 00000000 00:00 0 
7f981143d000-7f981153b000 rw-p 00000000 00:00 0 
7f981153b000-7f981153e000 ---p 00000000 00:00 0 
7f981153e000-7f981163c000 rw-p 00000000 00:00 0 
7f981163c000-7f98117b3000 r--p 00000000 08:04 3545383                    /usr/lib/locale/locale-archive
7f98117b3000-7f98117b6000 ---p 00000000 00:00 0 
7f98117b6000-7f98118b4000 rw-p 00000000 00:00 0 
7f98118b4000-7f98118b7000 ---p 00000000 00:00 0 
7f98118b7000-7f98119b5000 rw-p 00000000 00:00 0 
7f98119b5000-7f98119b6000 ---p 00000000 00:00 0 
7f98119b6000-7f9858000000 rw-p 00000000 00:00 0 
7f9858000000-7f98591e7000 rw-p 00000000 00:00 0 
7f98591e7000-7f985c000000 ---p 00000000 00:00 0 
7f985c076000-7f985c0c1000 rw-p 00000000 00:00 0 
7f985c0c1000-7f985c27d000 r--s 039b2000 08:04 277934                     /usr/lib/jvm/java-7-oracle/jre/lib/rt.jar
7f985c27d000-7f985c5f8000 rw-p 00000000 00:00 0 
7f985c5f8000-7f985c5f9000 ---p 00000000 00:00 0 
7f985c5f9000-7f985c6f9000 rw-p 00000000 00:00 0 
7f985c6f9000-7f985c6fa000 ---p 00000000 00:00 0 
7f985c6fa000-7f985c7fa000 rw-p 00000000 00:00 0 
7f985c7fa000-7f985c7fb000 ---p 00000000 00:00 0 
7f985c7fb000-7f985c8fb000 rw-p 00000000 00:00 0 
7f985c8fb000-7f985c8fc000 ---p 00000000 00:00 0 
7f985c8fc000-7f985c9fc000 rw-p 00000000 00:00 0 
7f985c9fc000-7f985c9fd000 ---p 00000000 00:00 0 
7f985c9fd000-7f985cafd000 rw-p 00000000 00:00 0 
7f985cafd000-7f985cafe000 ---p 00000000 00:00 0 
7f985cafe000-7f985cbfe000 rw-p 00000000 00:00 0 
7f985cbfe000-7f985cbff000 ---p 00000000 00:00 0 
7f985cbff000-7f985ccff000 rw-p 00000000 00:00 0 
7f985ccff000-7f985cd00000 ---p 00000000 00:00 0 
7f985cd00000-7f985ce00000 rw-p 00000000 00:00 0 
7f985ce00000-7f985ce01000 ---p 00000000 00:00 0 
7f985ce01000-7f985cf01000 rw-p 00000000 00:00 0 
7f985cf01000-7f985cf02000 ---p 00000000 00:00 0 
7f985cf02000-7f985d00f000 rw-p 00000000 00:00 0 
7f985d00f000-7f985d02b000 rw-p 00000000 00:00 0 
7f985d02b000-7f985fae3000 rw-p 00000000 00:00 0 
7f985fae3000-7f985faff000 rw-p 00000000 00:00 0 
7f985faff000-7f9863b00000 rw-p 00000000 00:00 0 
7f9863b00000-7f9863b80000 ---p 00000000 00:00 0 
7f9863b80000-7f9865400000 rw-p 00000000 00:00 0 
7f9865400000-7f9868d80000 rw-p 00000000 00:00 0 
7f9868d80000-7fa068e00000 rw-p 00000000 00:00 0 
7fa068e04000-7fa0690e4000 rwxp 00000000 00:00 0 
7fa0690e4000-7fa06be04000 rw-p 00000000 00:00 0 
7fa06be04000-7fa06be1e000 r-xp 00000000 08:04 262719                     /usr/lib/jvm/java-7-oracle/jre/lib/amd64/libzip.so
7fa06be1e000-7fa06c01e000 ---p 0001a000 08:04 262719                     /usr/lib/jvm/java-7-oracle/jre/lib/amd64/libzip.so
7fa06c01e000-7fa06c01f000 rw-p 0001a000 08:04 262719                     /usr/lib/jvm/java-7-oracle/jre/lib/amd64/libzip.so
7fa06c01f000-7fa06c02a000 r-xp 00000000 08:04 1441805                    /lib/x86_64-linux-gnu/libnss_files-2.13.so
7fa06c02a000-7fa06c229000 ---p 0000b000 08:04 1441805                    /lib/x86_64-linux-gnu/libnss_files-2.13.so
7fa06c229000-7fa06c22a000 r--p 0000a000 08:04 1441805                    /lib/x86_64-linux-gnu/libnss_files-2.13.so
7fa06c22a000-7fa06c22b000 rw-p 0000b000 08:04 1441805                    /lib/x86_64-linux-gnu/libnss_files-2.13.so
7fa06c22b000-7fa06c235000 r-xp 00000000 08:04 1441817                    /lib/x86_64-linux-gnu/libnss_nis-2.13.so
7fa06c235000-7fa06c434000 ---p 0000a000 08:04 1441817                    /lib/x86_64-linux-gnu/libnss_nis-2.13.so
7fa06c434000-7fa06c435000 r--p 00009000 08:04 1441817                    /lib/x86_64-linux-gnu/libnss_nis-2.13.so
7fa06c435000-7fa06c436000 rw-p 0000a000 08:04 1441817                    /lib/x86_64-linux-gnu/libnss_nis-2.13.so
7fa06c436000-7fa06c44b000 r-xp 00000000 08:04 1441815                    /lib/x86_64-linux-gnu/libnsl-2.13.so
7fa06c44b000-7fa06c64a000 ---p 00015000 08:04 1441815                    /lib/x86_64-linux-gnu/libnsl-2.13.so
7fa06c64a000-7fa06c64b000 r--p 00014000 08:04 1441815                    /lib/x86_64-linux-gnu/libnsl-2.13.so
7fa06c64b000-7fa06c64c000 rw-p 00015000 08:04 1441815                    /lib/x86_64-linux-gnu/libnsl-2.13.so
7fa06c64c000-7fa06c64e000 rw-p 00000000 00:00 0 
7fa06c64e000-7fa06c655000 r-xp 00000000 08:04 1441807                    /lib/x86_64-linux-gnu/libnss_compat-2.13.so
7fa06c655000-7fa06c854000 ---p 00007000 08:04 1441807                    /lib/x86_64-linux-gnu/libnss_compat-2.13.so
7fa06c854000-7fa06c855000 r--p 00006000 08:04 1441807                    /lib/x86_64-linux-gnu/libnss_compat-2.13.so
7fa06c855000-7fa06c856000 rw-p 00007000 08:04 1441807                    /lib/x86_64-linux-gnu/libnss_compat-2.13.so
7fa06c856000-7fa06c87f000 r-xp 00000000 08:04 262764                     /usr/lib/jvm/java-7-oracle/jre/lib/amd64/libjava.so
7fa06c87f000-7fa06ca7f000 ---p 00029000 08:04 262764                     /usr/lib/jvm/java-7-oracle/jre/lib/amd64/libjava.so
7fa06ca7f000-7fa06ca81000 rw-p 00029000 08:04 262764                     /usr/lib/jvm/java-7-oracle/jre/lib/amd64/libjava.so
7fa06ca81000-7fa06ca8e000 r-xp 00000000 08:04 262746                     /usr/lib/jvm/java-7-oracle/jre/lib/amd64/libverify.so
7fa06ca8e000-7fa06cc8d000 ---p 0000d000 08:04 262746                     /usr/lib/jvm/java-7-oracle/jre/lib/amd64/libverify.so
7fa06cc8d000-7fa06cc8f000 rw-p 0000c000 08:04 262746                     /usr/lib/jvm/java-7-oracle/jre/lib/amd64/libverify.so
7fa06cc8f000-7fa06cc96000 r-xp 00000000 08:04 1441806                    /lib/x86_64-linux-gnu/librt-2.13.so
7fa06cc96000-7fa06ce95000 ---p 00007000 08:04 1441806                    /lib/x86_64-linux-gnu/librt-2.13.so
7fa06ce95000-7fa06ce96000 r--p 00006000 08:04 1441806                    /lib/x86_64-linux-gnu/librt-2.13.so
7fa06ce96000-7fa06ce97000 rw-p 00007000 08:04 1441806                    /lib/x86_64-linux-gnu/librt-2.13.so
7fa06ce97000-7fa06cf18000 r-xp 00000000 08:04 1441808                    /lib/x86_64-linux-gnu/libm-2.13.so
7fa06cf18000-7fa06d117000 ---p 00081000 08:04 1441808                    /lib/x86_64-linux-gnu/libm-2.13.so
7fa06d117000-7fa06d118000 r--p 00080000 08:04 1441808                    /lib/x86_64-linux-gnu/libm-2.13.so
7fa06d118000-7fa06d119000 rw-p 00081000 08:04 1441808                    /lib/x86_64-linux-gnu/libm-2.13.so
7fa06d119000-7fa06dc7b000 r-xp 00000000 08:04 262725                     /usr/lib/jvm/java-7-oracle/jre/lib/amd64/server/libjvm.so
7fa06dc7b000-7fa06de7b000 ---p 00b62000 08:04 262725                     /usr/lib/jvm/java-7-oracle/jre/lib/amd64/server/libjvm.so
7fa06de7b000-7fa06df3e000 rw-p 00b62000 08:04 262725                     /usr/lib/jvm/java-7-oracle/jre/lib/amd64/server/libjvm.so
7fa06df3e000-7fa06df7f000 rw-p 00000000 00:00 0 
7fa06df7f000-7fa06e0ff000 r-xp 00000000 08:04 1441811                    /lib/x86_64-linux-gnu/libc-2.13.so
7fa06e0ff000-7fa06e2ff000 ---p 00180000 08:04 1441811                    /lib/x86_64-linux-gnu/libc-2.13.so
7fa06e2ff000-7fa06e303000 r--p 00180000 08:04 1441811                    /lib/x86_64-linux-gnu/libc-2.13.so
7fa06e303000-7fa06e304000 rw-p 00184000 08:04 1441811                    /lib/x86_64-linux-gnu/libc-2.13.so
7fa06e304000-7fa06e309000 rw-p 00000000 00:00 0 
7fa06e309000-7fa06e30b000 r-xp 00000000 08:04 1441804                    /lib/x86_64-linux-gnu/libdl-2.13.so
7fa06e30b000-7fa06e50b000 ---p 00002000 08:04 1441804                    /lib/x86_64-linux-gnu/libdl-2.13.so
7fa06e50b000-7fa06e50c000 r--p 00002000 08:04 1441804                    /lib/x86_64-linux-gnu/libdl-2.13.so
7fa06e50c000-7fa06e50d000 rw-p 00003000 08:04 1441804                    /lib/x86_64-linux-gnu/libdl-2.13.so
7fa06e50d000-7fa06e523000 r-xp 00000000 08:04 279625                     /usr/lib/jvm/java-7-oracle/lib/amd64/jli/libjli.so
7fa06e523000-7fa06e723000 ---p 00016000 08:04 279625                     /usr/lib/jvm/java-7-oracle/lib/amd64/jli/libjli.so
7fa06e723000-7fa06e724000 rw-p 00016000 08:04 279625                     /usr/lib/jvm/java-7-oracle/lib/amd64/jli/libjli.so
7fa06e724000-7fa06e73b000 r-xp 00000000 08:04 1441801                    /lib/x86_64-linux-gnu/libpthread-2.13.so
7fa06e73b000-7fa06e93a000 ---p 00017000 08:04 1441801                    /lib/x86_64-linux-gnu/libpthread-2.13.so
7fa06e93a000-7fa06e93b000 r--p 00016000 08:04 1441801                    /lib/x86_64-linux-gnu/libpthread-2.13.so
7fa06e93b000-7fa06e93c000 rw-p 00017000 08:04 1441801                    /lib/x86_64-linux-gnu/libpthread-2.13.so
7fa06e93c000-7fa06e940000 rw-p 00000000 00:00 0 
7fa06e940000-7fa06e960000 r-xp 00000000 08:04 1441814                    /lib/x86_64-linux-gnu/ld-2.13.so
7fa06e97d000-7fa06e989000 rw-p 00000000 00:00 0 
7fa06e989000-7fa06ea3d000 rw-p 00000000 00:00 0 
7fa06ea3d000-7fa06ea40000 ---p 00000000 00:00 0 
7fa06ea40000-7fa06eb42000 rw-p 00000000 00:00 0 
7fa06eb49000-7fa06eb4d000 r--s 000f7000 08:04 277919                     /usr/lib/jvm/java-7-oracle/jre/lib/ext/localedata.jar
7fa06eb4d000-7fa06eb4f000 r--s 00019000 08:04 277931                     /usr/lib/jvm/java-7-oracle/jre/lib/jce.jar
7fa06eb4f000-7fa06eb53000 r--s 0008a000 08:04 277983                     /usr/lib/jvm/java-7-oracle/jre/lib/jsse.jar
7fa06eb53000-7fa06eb5b000 rw-s 00000000 00:12 31816                      /tmp/hsperfdata_anantoni/5296
7fa06eb5b000-7fa06eb5c000 rw-p 00000000 00:00 0 
7fa06eb5c000-7fa06eb5d000 r--p 00000000 00:00 0 
7fa06eb5d000-7fa06eb5f000 rw-p 00000000 00:00 0 
7fa06eb5f000-7fa06eb60000 r--p 0001f000 08:04 1441814                    /lib/x86_64-linux-gnu/ld-2.13.so
7fa06eb60000-7fa06eb61000 rw-p 00020000 08:04 1441814                    /lib/x86_64-linux-gnu/ld-2.13.so
7fa06eb61000-7fa06eb62000 rw-p 00000000 00:00 0 
7fff361c7000-7fff361e9000 rw-p 00000000 00:00 0                          [stack]
7fff361ff000-7fff36200000 r-xp 00000000 00:00 0                          [vdso]
ffffffffff600000-ffffffffff601000 r-xp 00000000 00:00 0                  [vsyscall]

VM Arguments:
jvm_args: -Dfile.encoding=UTF-8 -Xms32g 
java_command: main.MyPointerAnalysis
Launcher Type: SUN_STANDARD

Environment Variables:
JAVA_HOME=/usr/lib/jvm/java-7-oracle
PATH=/usr/local/bin:/usr/bin:/bin:/usr/local/games:/usr/games:/usr/lib/jvm/java-7-oracle/bin:/usr/lib/jvm/java-7-oracle/db/bin:/usr/lib/jvm/java-7-oracle/jre/bin
USERNAME=anantoni
LD_LIBRARY_PATH=/usr/lib/jvm/java-7-oracle/jre/lib/amd64:/usr/lib/jvm/java-7-oracle/jre/lib/i386:
SHELL=/bin/bash
DISPLAY=:0.0

Signal Handlers:
SIGSEGV: [libjvm.so+0x9935b0], sa_mask[0]=0x7ffbfeff, sa_flags=0x10000004
SIGBUS: [libjvm.so+0x9935b0], sa_mask[0]=0x7ffbfeff, sa_flags=0x10000004
SIGFPE: [libjvm.so+0x810330], sa_mask[0]=0x7ffbfeff, sa_flags=0x10000004
SIGPIPE: [libjvm.so+0x810330], sa_mask[0]=0x7ffbfeff, sa_flags=0x10000004
SIGXFSZ: [libjvm.so+0x810330], sa_mask[0]=0x7ffbfeff, sa_flags=0x10000004
SIGILL: [libjvm.so+0x810330], sa_mask[0]=0x7ffbfeff, sa_flags=0x10000004
SIGUSR1: SIG_DFL, sa_mask[0]=0x00000000, sa_flags=0x00000000
SIGUSR2: [libjvm.so+0x811820], sa_mask[0]=0x00000004, sa_flags=0x10000004
SIGHUP: [libjvm.so+0x812790], sa_mask[0]=0x7ffbfeff, sa_flags=0x10000004
SIGINT: SIG_IGN, sa_mask[0]=0x00000000, sa_flags=0x00000000
SIGTERM: [libjvm.so+0x812790], sa_mask[0]=0x7ffbfeff, sa_flags=0x10000004
SIGQUIT: [libjvm.so+0x812790], sa_mask[0]=0x7ffbfeff, sa_flags=0x10000004


---------------  S Y S T E M  ---------------

OS:7.2

uname:Linux 3.2.0-4-amd64 #1 SMP Debian 3.2.51-1 x86_64
libc:glibc 2.13 NPTL 2.13 
rlimit: STACK 8192k, CORE 0k, NPROC 128116, NOFILE 4096, AS infinity
load average:4.96 2.12 0.95

/proc/meminfo:
MemTotal:       16411040 kB
MemFree:          169696 kB
Buffers:             660 kB
Cached:            16280 kB
SwapCached:       477960 kB
Active:         14341088 kB
Inactive:        1713428 kB
Active(anon):   14335360 kB
Inactive(anon):  1702280 kB
Active(file):       5728 kB
Inactive(file):    11148 kB
Unevictable:          16 kB
Mlocked:              16 kB
SwapTotal:      42785952 kB
SwapFree:       38663096 kB
Dirty:                 0 kB
Writeback:             0 kB
AnonPages:      15778404 kB
Mapped:             8284 kB
Shmem:                36 kB
Slab:              50668 kB
SReclaimable:      18324 kB
SUnreclaim:        32344 kB
KernelStack:        2984 kB
PageTables:        53076 kB
NFS_Unstable:          0 kB
Bounce:                0 kB
WritebackTmp:          0 kB
CommitLimit:    50991472 kB
Committed_AS:   36513200 kB
VmallocTotal:   34359738367 kB
VmallocUsed:      347948 kB
VmallocChunk:   34359387756 kB
HardwareCorrupted:     0 kB
AnonHugePages:         0 kB
HugePages_Total:       0
HugePages_Free:        0
HugePages_Rsvd:        0
HugePages_Surp:        0
Hugepagesize:       2048 kB
DirectMap4k:      102400 kB
DirectMap2M:     4059136 kB
DirectMap1G:    12582912 kB


CPU:total 12 (6 cores per cpu, 2 threads per core) family 6 model 45 stepping 6, cmov, cx8, fxsr, mmx, sse, sse2, sse3, ssse3, sse4.1, sse4.2, popcnt, avx, aes, ht, tsc, tscinvbit, tscinv

/proc/cpuinfo:
processor	: 0
vendor_id	: GenuineIntel
cpu family	: 6
model		: 45
model name	: 06/2d
stepping	: 6
microcode	: 0x616
cpu MHz		: 3301.000
cache size	: 15360 KB
physical id	: 0
siblings	: 12
core id		: 0
cpu cores	: 6
apicid		: 0
initial apicid	: 0
fpu		: yes
fpu_exception	: yes
cpuid level	: 13
wp		: yes
flags		: fpu vme de pse tsc msr pae mce cx8 apic sep mtrr pge mca cmov pat pse36 clflush dts acpi mmx fxsr sse sse2 ss ht tm pbe syscall nx pdpe1gb rdtscp lm constant_tsc arch_perfmon pebs bts rep_good nopl xtopology nonstop_tsc aperfmperf pni pclmulqdq dtes64 monitor ds_cpl vmx est tm2 ssse3 cx16 xtpr pdcm pcid dca sse4_1 sse4_2 x2apic popcnt tsc_deadline_timer aes xsave avx lahf_lm ida arat epb xsaveopt pln pts dtherm tpr_shadow vnmi flexpriority ept vpid
bogomips	: 6600.87
clflush size	: 64
cache_alignment	: 64
address sizes	: 46 bits physical, 48 bits virtual
power management:

processor	: 1
vendor_id	: GenuineIntel
cpu family	: 6
model		: 45
model name	: 06/2d
stepping	: 6
microcode	: 0x616
cpu MHz		: 2900.000
cache size	: 15360 KB
physical id	: 0
siblings	: 12
core id		: 1
cpu cores	: 6
apicid		: 2
initial apicid	: 2
fpu		: yes
fpu_exception	: yes
cpuid level	: 13
wp		: yes
flags		: fpu vme de pse tsc msr pae mce cx8 apic sep mtrr pge mca cmov pat pse36 clflush dts acpi mmx fxsr sse sse2 ss ht tm pbe syscall nx pdpe1gb rdtscp lm constant_tsc arch_perfmon pebs bts rep_good nopl xtopology nonstop_tsc aperfmperf pni pclmulqdq dtes64 monitor ds_cpl vmx est tm2 ssse3 cx16 xtpr pdcm pcid dca sse4_1 sse4_2 x2apic popcnt tsc_deadline_timer aes xsave avx lahf_lm ida arat epb xsaveopt pln pts dtherm tpr_shadow vnmi flexpriority ept vpid
bogomips	: 6599.78
clflush size	: 64
cache_alignment	: 64
address sizes	: 46 bits physical, 48 bits virtual
power management:

processor	: 2
vendor_id	: GenuineIntel
cpu family	: 6
model		: 45
model name	: 06/2d
stepping	: 6
microcode	: 0x616
cpu MHz		: 1200.000
cache size	: 15360 KB
physical id	: 0
siblings	: 12
core id		: 2
cpu cores	: 6
apicid		: 4
initial apicid	: 4
fpu		: yes
fpu_exception	: yes
cpuid level	: 13
wp		: yes
flags		: fpu vme de pse tsc msr pae mce cx8 apic sep mtrr pge mca cmov pat pse36 clflush dts acpi mmx fxsr sse sse2 ss ht tm pbe syscall nx pdpe1gb rdtscp lm constant_tsc arch_perfmon pebs bts rep_good nopl xtopology nonstop_tsc aperfmperf pni pclmulqdq dtes64 monitor ds_cpl vmx est tm2 ssse3 cx16 xtpr pdcm pcid dca sse4_1 sse4_2 x2apic popcnt tsc_deadline_timer aes xsave avx lahf_lm ida arat epb xsaveopt pln pts dtherm tpr_shadow vnmi flexpriority ept vpid
bogomips	: 6599.78
clflush size	: 64
cache_alignment	: 64
address sizes	: 46 bits physical, 48 bits virtual
power management:

processor	: 3
vendor_id	: GenuineIntel
cpu family	: 6
model		: 45
model name	: 06/2d
stepping	: 6
microcode	: 0x616
cpu MHz		: 1200.000
cache size	: 15360 KB
physical id	: 0
siblings	: 12
core id		: 3
cpu cores	: 6
apicid		: 6
initial apicid	: 6
fpu		: yes
fpu_exception	: yes
cpuid level	: 13
wp		: yes
flags		: fpu vme de pse tsc msr pae mce cx8 apic sep mtrr pge mca cmov pat pse36 clflush dts acpi mmx fxsr sse sse2 ss ht tm pbe syscall nx pdpe1gb rdtscp lm constant_tsc arch_perfmon pebs bts rep_good nopl xtopology nonstop_tsc aperfmperf pni pclmulqdq dtes64 monitor ds_cpl vmx est tm2 ssse3 cx16 xtpr pdcm pcid dca sse4_1 sse4_2 x2apic popcnt tsc_deadline_timer aes xsave avx lahf_lm ida arat epb xsaveopt pln pts dtherm tpr_shadow vnmi flexpriority ept vpid
bogomips	: 6599.78
clflush size	: 64
cache_alignment	: 64
address sizes	: 46 bits physical, 48 bits virtual
power management:

processor	: 4
vendor_id	: GenuineIntel
cpu family	: 6
model		: 45
model name	: 06/2d
stepping	: 6
microcode	: 0x616
cpu MHz		: 3301.000
cache size	: 15360 KB
physical id	: 0
siblings	: 12
core id		: 4
cpu cores	: 6
apicid		: 8
initial apicid	: 8
fpu		: yes
fpu_exception	: yes
cpuid level	: 13
wp		: yes
flags		: fpu vme de pse tsc msr pae mce cx8 apic sep mtrr pge mca cmov pat pse36 clflush dts acpi mmx fxsr sse sse2 ss ht tm pbe syscall nx pdpe1gb rdtscp lm constant_tsc arch_perfmon pebs bts rep_good nopl xtopology nonstop_tsc aperfmperf pni pclmulqdq dtes64 monitor ds_cpl vmx est tm2 ssse3 cx16 xtpr pdcm pcid dca sse4_1 sse4_2 x2apic popcnt tsc_deadline_timer aes xsave avx lahf_lm ida arat epb xsaveopt pln pts dtherm tpr_shadow vnmi flexpriority ept vpid
bogomips	: 6599.78
clflush size	: 64
cache_alignment	: 64
address sizes	: 46 bits physical, 48 bits virtual
power management:

processor	: 5
vendor_id	: GenuineIntel
cpu family	: 6
model		: 45
model name	: 06/2d
stepping	: 6
microcode	: 0x616
cpu MHz		: 1200.000
cache size	: 15360 KB
physical id	: 0
siblings	: 12
core id		: 5
cpu cores	: 6
apicid		: 10
initial apicid	: 10
fpu		: yes
fpu_exception	: yes
cpuid level	: 13
wp		: yes
flags		: fpu vme de pse tsc msr pae mce cx8 apic sep mtrr pge mca cmov pat pse36 clflush dts acpi mmx fxsr sse sse2 ss ht tm pbe syscall nx pdpe1gb rdtscp lm constant_tsc arch_perfmon pebs bts rep_good nopl xtopology nonstop_tsc aperfmperf pni pclmulqdq dtes64 monitor ds_cpl vmx est tm2 ssse3 cx16 xtpr pdcm pcid dca sse4_1 sse4_2 x2apic popcnt tsc_deadline_timer aes xsave avx lahf_lm ida arat epb xsaveopt pln pts dtherm tpr_shadow vnmi flexpriority ept vpid
bogomips	: 6599.78
clflush size	: 64
cache_alignment	: 64
address sizes	: 46 bits physical, 48 bits virtual
power management:

processor	: 6
vendor_id	: GenuineIntel
cpu family	: 6
model		: 45
model name	: 06/2d
stepping	: 6
microcode	: 0x616
cpu MHz		: 1200.000
cache size	: 15360 KB
physical id	: 0
siblings	: 12
core id		: 0
cpu cores	: 6
apicid		: 1
initial apicid	: 1
fpu		: yes
fpu_exception	: yes
cpuid level	: 13
wp		: yes
flags		: fpu vme de pse tsc msr pae mce cx8 apic sep mtrr pge mca cmov pat pse36 clflush dts acpi mmx fxsr sse sse2 ss ht tm pbe syscall nx pdpe1gb rdtscp lm constant_tsc arch_perfmon pebs bts rep_good nopl xtopology nonstop_tsc aperfmperf pni pclmulqdq dtes64 monitor ds_cpl vmx est tm2 ssse3 cx16 xtpr pdcm pcid dca sse4_1 sse4_2 x2apic popcnt tsc_deadline_timer aes xsave avx lahf_lm ida arat epb xsaveopt pln pts dtherm tpr_shadow vnmi flexpriority ept vpid
bogomips	: 6599.78
clflush size	: 64
cache_alignment	: 64
address sizes	: 46 bits physical, 48 bits virtual
power management:

processor	: 7
vendor_id	: GenuineIntel
cpu family	: 6
model		: 45
model name	: 06/2d
stepping	: 6
microcode	: 0x616
cpu MHz		: 3301.000
cache size	: 15360 KB
physical id	: 0
siblings	: 12
core id		: 1
cpu cores	: 6
apicid		: 3
initial apicid	: 3
fpu		: yes
fpu_exception	: yes
cpuid level	: 13
wp		: yes
flags		: fpu vme de pse tsc msr pae mce cx8 apic sep mtrr pge mca cmov pat pse36 clflush dts acpi mmx fxsr sse sse2 ss ht tm pbe syscall nx pdpe1gb rdtscp lm constant_tsc arch_perfmon pebs bts rep_good nopl xtopology nonstop_tsc aperfmperf pni pclmulqdq dtes64 monitor ds_cpl vmx est tm2 ssse3 cx16 xtpr pdcm pcid dca sse4_1 sse4_2 x2apic popcnt tsc_deadline_timer aes xsave avx lahf_lm ida arat epb xsaveopt pln pts dtherm tpr_shadow vnmi flexpriority ept vpid
bogomips	: 6599.77
clflush size	: 64
cache_alignment	: 64
address sizes	: 46 bits physical, 48 bits virtual
power management:

processor	: 8
vendor_id	: GenuineIntel
cpu family	: 6
model		: 45
model name	: 06/2d
stepping	: 6
microcode	: 0x616
cpu MHz		: 3301.000
cache size	: 15360 KB
physical id	: 0
siblings	: 12
core id		: 2
cpu cores	: 6
apicid		: 5
initial apicid	: 5
fpu		: yes
fpu_exception	: yes
cpuid level	: 13
wp		: yes
flags		: fpu vme de pse tsc msr pae mce cx8 apic sep mtrr pge mca cmov pat pse36 clflush dts acpi mmx fxsr sse sse2 ss ht tm pbe syscall nx pdpe1gb rdtscp lm constant_tsc arch_perfmon pebs bts rep_good nopl xtopology nonstop_tsc aperfmperf pni pclmulqdq dtes64 monitor ds_cpl vmx est tm2 ssse3 cx16 xtpr pdcm pcid dca sse4_1 sse4_2 x2apic popcnt tsc_deadline_timer aes xsave avx lahf_lm ida arat epb xsaveopt pln pts dtherm tpr_shadow vnmi flexpriority ept vpid
bogomips	: 6599.79
clflush size	: 64
cache_alignment	: 64
address sizes	: 46 bits physical, 48 bits virtual
power management:

processor	: 9
vendor_id	: GenuineIntel
cpu family	: 6
model		: 45
model name	: 06/2d
stepping	: 6
microcode	: 0x616
cpu MHz		: 3301.000
cache size	: 15360 KB
physical id	: 0
siblings	: 12
core id		: 3
cpu cores	: 6
apicid		: 7
initial apicid	: 7
fpu		: yes
fpu_exception	: yes
cpuid level	: 13
wp		: yes
flags		: fpu vme de pse tsc msr pae mce cx8 apic sep mtrr pge mca cmov pat pse36 clflush dts acpi mmx fxsr sse sse2 ss ht tm pbe syscall nx pdpe1gb rdtscp lm constant_tsc arch_perfmon pebs bts rep_good nopl xtopology nonstop_tsc aperfmperf pni pclmulqdq dtes64 monitor ds_cpl vmx est tm2 ssse3 cx16 xtpr pdcm pcid dca sse4_1 sse4_2 x2apic popcnt tsc_deadline_timer aes xsave avx lahf_lm ida arat epb xsaveopt pln pts dtherm tpr_shadow vnmi flexpriority ept vpid
bogomips	: 6599.78
clflush size	: 64
cache_alignment	: 64
address sizes	: 46 bits physical, 48 bits virtual
power management:

processor	: 10
vendor_id	: GenuineIntel
cpu family	: 6
model		: 45
model name	: 06/2d
stepping	: 6
microcode	: 0x616
cpu MHz		: 3301.000
cache size	: 15360 KB
physical id	: 0
siblings	: 12
core id		: 4
cpu cores	: 6
apicid		: 9
initial apicid	: 9
fpu		: yes
fpu_exception	: yes
cpuid level	: 13
wp		: yes
flags		: fpu vme de pse tsc msr pae mce cx8 apic sep mtrr pge mca cmov pat pse36 clflush dts acpi mmx fxsr sse sse2 ss ht tm pbe syscall nx pdpe1gb rdtscp lm constant_tsc arch_perfmon pebs bts rep_good nopl xtopology nonstop_tsc aperfmperf pni pclmulqdq dtes64 monitor ds_cpl vmx est tm2 ssse3 cx16 xtpr pdcm pcid dca sse4_1 sse4_2 x2apic popcnt tsc_deadline_timer aes xsave avx lahf_lm ida arat epb xsaveopt pln pts dtherm tpr_shadow vnmi flexpriority ept vpid
bogomips	: 6599.78
clflush size	: 64
cache_alignment	: 64
address sizes	: 46 bits physical, 48 bits virtual
power management:

processor	: 11
vendor_id	: GenuineIntel
cpu family	: 6
model		: 45
model name	: 06/2d
stepping	: 6
microcode	: 0x616
cpu MHz		: 3301.000
cache size	: 15360 KB
physical id	: 0
siblings	: 12
core id		: 5
cpu cores	: 6
apicid		: 11
initial apicid	: 11
fpu		: yes
fpu_exception	: yes
cpuid level	: 13
wp		: yes
flags		: fpu vme de pse tsc msr pae mce cx8 apic sep mtrr pge mca cmov pat pse36 clflush dts acpi mmx fxsr sse sse2 ss ht tm pbe syscall nx pdpe1gb rdtscp lm constant_tsc arch_perfmon pebs bts rep_good nopl xtopology nonstop_tsc aperfmperf pni pclmulqdq dtes64 monitor ds_cpl vmx est tm2 ssse3 cx16 xtpr pdcm pcid dca sse4_1 sse4_2 x2apic popcnt tsc_deadline_timer aes xsave avx lahf_lm ida arat epb xsaveopt pln pts dtherm tpr_shadow vnmi flexpriority ept vpid
bogomips	: 6599.78
clflush size	: 64
cache_alignment	: 64
address sizes	: 46 bits physical, 48 bits virtual
power management:



Memory: 4k page, physical 16411040k(169696k free), swap 42785952k(38663128k free)

vm_info: Java HotSpot(TM) 64-Bit Server VM (24.45-b08) for linux-amd64 JRE (1.7.0_45-b18), built on Oct  8 2013 05:44:25 by "java_re" with gcc 4.3.0 20080428 (Red Hat 4.3.0-8)

time: Sat Nov  9 02:36:08 2013
elapsed time: 221 seconds

